<svg width="28" height="28" viewBox="0 0 28 28" fill="none" xmlns="http://www.w3.org/2000/svg">
<g clip-path="url(#clip0_0_203)">
<path d="M20.5619 8.26293L22.9915 5.83335L22.1667 5.00851L19.5866 7.5886C17.9737 6.56543 16.0924 5.83335 14 5.83335C6.99999 5.83335 2.33333 14 2.33333 14C2.33333 14 4.23908 17.3297 7.43808 19.7371L5.0085 22.1667L5.83333 22.9915L8.41341 20.4114C10.0263 21.4346 11.9076 22.1667 14 22.1667C21 22.1667 25.6667 14 25.6667 14C25.6667 14 23.7609 10.6703 20.5619 8.26293ZM3.71116 13.9988C4.88424 12.2255 8.78383 7.00001 14 7.00001C15.7424 7.00001 17.3355 7.59326 18.7343 8.44085L16.8583 10.3168C16.0685 9.7026 15.078 9.33335 14 9.33335C11.4228 9.33335 9.33333 11.4228 9.33333 14C9.33333 15.078 9.70258 16.0685 10.3168 16.8583L8.27749 18.8977C6.01766 17.2358 4.39658 15.0313 3.71116 13.9988ZM17.5 14C17.5 15.9297 15.9297 17.5 14 17.5C13.2452 17.5 12.5475 17.2573 11.9752 16.8496L16.8496 11.9753C17.2573 12.5475 17.5 13.2452 17.5 14ZM10.5 14C10.5 12.0703 12.0703 10.5 14 10.5C14.7548 10.5 15.4525 10.7427 16.0247 11.1504L11.1504 16.0248C10.7427 15.4525 10.5 14.7548 10.5 14ZM14 21C12.2576 21 10.6645 20.4068 9.26566 19.5592L11.1417 17.6832C11.9315 18.2974 12.922 18.6667 14 18.6667C16.5772 18.6667 18.6667 16.5772 18.6667 14C18.6667 12.922 18.2974 11.9315 17.6832 11.1417L19.7225 9.10235C21.9817 10.7643 23.6028 12.9687 24.2882 14.0018C23.1157 15.7745 19.2162 21 14 21Z" fill="#808080"/>
</g>
<defs>
<clipPath id="clip0_0_203">
<rect width="28" height="28" fill="white"/>
</clipPath>
</defs>
</svg>
