<svg width="80" height="40" viewBox="0 0 80 40" fill="none" xmlns="http://www.w3.org/2000/svg">
<path d="M26.9399 22.7354C26.9399 24.1247 26.3491 25.1989 25.1675 25.958C24.0145 26.6956 22.4318 27.0645 20.4194 27.0645C19.8608 27.0645 18.7651 27.043 17.1323 27C17.2326 24.7799 17.2827 22.3307 17.2827 19.6523C17.2827 17.1315 17.2326 14.9186 17.1323 13.0137H18.4214C18.672 13.0137 19.1769 13.0029 19.936 12.9814C20.6951 12.96 21.2466 12.9492 21.5903 12.9492C24.5695 12.9492 26.0591 13.9769 26.0591 16.0322C26.0591 17.6364 25.3537 18.7035 23.9429 19.2334V19.3408C25.9409 19.6989 26.9399 20.8304 26.9399 22.7354ZM25.1245 22.918C25.1245 21.1562 23.5633 20.2754 20.4409 20.2754C19.868 20.2754 19.3631 20.2969 18.9263 20.3398C18.9263 22.252 18.9656 23.96 19.0444 25.4639C19.3165 25.5283 19.7964 25.5605 20.4839 25.5605C22.2098 25.5605 23.4344 25.335 24.1577 24.8838C24.8022 24.4756 25.1245 23.8203 25.1245 22.918ZM24.2544 16.5693C24.2544 15.0869 23.2554 14.3457 21.2573 14.3457C20.2547 14.3457 19.4419 14.3994 18.8188 14.5068C18.8761 15.0225 18.9048 16.4798 18.9048 18.8789C19.2557 18.8932 19.6424 18.9004 20.0649 18.9004C21.4829 18.9004 22.5141 18.7393 23.1587 18.417C23.8891 18.0589 24.2544 17.443 24.2544 16.5693ZM40.0656 25.3779L40.0011 27H31.3429C31.4432 24.7799 31.4933 22.3307 31.4933 19.6523C31.4933 17.1315 31.4432 14.9186 31.3429 13.0137H39.464L39.3781 14.6143C37.4087 14.5283 35.3211 14.4854 33.1154 14.4854C33.1584 15.5954 33.1798 17.0957 33.1798 18.9863C35.0848 18.9863 36.7821 18.9434 38.2716 18.8574V20.458C36.6818 20.3936 34.9845 20.3613 33.1798 20.3613C33.1798 22.2018 33.2121 23.9277 33.2765 25.5391C35.6541 25.5391 37.9171 25.4854 40.0656 25.3779ZM52.2782 23.3799C52.2782 26.0296 50.4341 27.3545 46.7459 27.3545C45.3996 27.3545 44.2036 27.2005 43.158 26.8926L43.534 25.2061C44.7371 25.6214 45.8794 25.8291 46.9608 25.8291C49.3957 25.8291 50.6131 25.1416 50.6131 23.7666C50.6131 23.0719 50.298 22.4775 49.6678 21.9834C49.2453 21.654 48.4146 21.2135 47.1756 20.6621C45.8722 20.082 44.9592 19.5485 44.4364 19.0615C43.7131 18.3883 43.3514 17.5433 43.3514 16.5264C43.3514 15.4665 43.7202 14.6035 44.4579 13.9375C45.2814 13.1927 46.4452 12.8203 47.9491 12.8203C49.6535 12.8203 50.8208 12.9313 51.451 13.1533L51.1932 14.8613C50.1047 14.5176 48.9481 14.3457 47.7235 14.3457C45.883 14.3457 44.9627 14.9616 44.9627 16.1934C44.9627 16.7878 45.2277 17.2855 45.7577 17.6865C46.1014 17.9372 46.8605 18.3167 48.035 18.8252C49.3742 19.4053 50.341 19.9567 50.9354 20.4795C51.8306 21.2673 52.2782 22.234 52.2782 23.3799ZM65.6402 13.0137L65.5864 14.5283C64.1685 14.4567 62.704 14.4209 61.1929 14.4209C61.1786 15.7959 61.1714 17.5397 61.1714 19.6523C61.1714 21.987 61.2072 24.4362 61.2788 27H59.313C59.3989 24.5579 59.4419 22.1087 59.4419 19.6523C59.4419 17.5684 59.4204 15.8245 59.3775 14.4209C58.3176 14.4209 56.828 14.4639 54.9087 14.5498L54.9624 13.0137H65.6402Z" fill="#004632"/>
<rect x="0.5" y="0.5" width="79" height="39" stroke="#004632"/>
</svg>
