<svg width="88" height="16" viewBox="0 0 88 16" fill="none" xmlns="http://www.w3.org/2000/svg">
<path d="M10.06 5.72237L8 1.33337L5.94 5.72237L1.33334 6.42637L4.66667 9.84271L3.87967 14.6667L8 12.389L12.1203 14.6667L11.3333 9.84271L14.6667 6.42637L10.06 5.72237Z" fill="#004632"/>
<path d="M28.06 5.72237L26 1.33337L23.94 5.72237L19.3333 6.42637L22.6667 9.84271L21.8797 14.6667L26 12.389L30.1203 14.6667L29.3333 9.84271L32.6667 6.42637L28.06 5.72237Z" fill="#004632"/>
<path d="M46.06 5.72237L44 1.33337L41.94 5.72237L37.3333 6.42637L40.6667 9.84271L39.8797 14.6667L44 12.389L48.1203 14.6667L47.3333 9.84271L50.6667 6.42637L46.06 5.72237Z" fill="#004632"/>
<path d="M64.06 5.72237L62 1.33337L59.94 5.72237L55.3333 6.42637L58.6667 9.84271L57.8797 14.6667L62 12.389L66.1203 14.6667L65.3333 9.84271L68.6667 6.42637L64.06 5.72237Z" fill="#004632"/>
<path d="M82.06 5.72237L80 1.33337L77.94 5.72237L73.3333 6.42637L76.6667 9.84271L75.8797 14.6667L80 12.389L84.1203 14.6667L83.3333 9.84271L86.6667 6.42637L82.06 5.72237Z" fill="#004632"/>
</svg>
